%YAML 1.1
%TAG !u! tag:unity3d.com,2011:
--- !u!1 &5191462270135772736
GameObject:
  m_ObjectHideFlags: 0
  m_CorrespondingSourceObject: {fileID: 0}
  m_PrefabInstance: {fileID: 0}
  m_PrefabAsset: {fileID: 0}
  serializedVersion: 6
  m_Component:
  - component: {fileID: 2547544669525458261}
  - component: {fileID: 3614039775650639141}
  m_Layer: 0
  m_Name: Point Light
  m_TagString: Untagged
  m_Icon: {fileID: 0}
  m_NavMeshLayer: 0
  m_StaticEditorFlags: 0
  m_IsActive: 1
--- !u!4 &2547544669525458261
Transform:
  m_ObjectHideFlags: 0
  m_CorrespondingSourceObject: {fileID: 0}
  m_PrefabInstance: {fileID: 0}
  m_PrefabAsset: {fileID: 0}
  m_GameObject: {fileID: 5191462270135772736}
  m_LocalRotation: {x: -0, y: -0, z: -0, w: 1}
  m_LocalPosition: {x: 0, y: 3, z: 1.500001}
  m_LocalScale: {x: 1, y: 1, z: 1}
  m_Children: []
  m_Father: {fileID: 7930948809067780037}
  m_RootOrder: 4
  m_LocalEulerAnglesHint: {x: 0, y: 0, z: 0}
--- !u!108 &3614039775650639141
Light:
  m_ObjectHideFlags: 0
  m_CorrespondingSourceObject: {fileID: 0}
  m_PrefabInstance: {fileID: 0}
  m_PrefabAsset: {fileID: 0}
  m_GameObject: {fileID: 5191462270135772736}
  m_Enabled: 1
  serializedVersion: 9
  m_Type: 2
  m_Color: {r: 0.9529412, g: 0.8235294, b: 0.50980395, a: 1}
  m_Intensity: 0.4
  m_Range: 8
  m_SpotAngle: 30
  m_InnerSpotAngle: 21.80208
  m_CookieSize: 10
  m_Shadows:
    m_Type: 0
    m_Resolution: -1
    m_CustomResolution: -1
    m_Strength: 1
    m_Bias: 0.05
    m_NormalBias: 0.4
    m_NearPlane: 0.2
    m_CullingMatrixOverride:
      e00: 1
      e01: 0
      e02: 0
      e03: 0
      e10: 0
      e11: 1
      e12: 0
      e13: 0
      e20: 0
      e21: 0
      e22: 1
      e23: 0
      e30: 0
      e31: 0
      e32: 0
      e33: 1
    m_UseCullingMatrixOverride: 0
  m_Cookie: {fileID: 0}
  m_DrawHalo: 0
  m_Flare: {fileID: 0}
  m_RenderMode: 0
  m_CullingMask:
    serializedVersion: 2
    m_Bits: 4294967295
  m_RenderingLayerMask: 1
  m_Lightmapping: 4
  m_LightShadowCasterMode: 0
  m_AreaSize: {x: 1, y: 1}
  m_BounceIntensity: 1
  m_ColorTemperature: 6570
  m_UseColorTemperature: 0
  m_BoundingSphereOverride: {x: 0, y: 0, z: 0, w: 0}
  m_UseBoundingSphereOverride: 0
  m_ShadowRadius: 0
  m_ShadowAngle: 0
--- !u!1 &5391383075313842436
GameObject:
  m_ObjectHideFlags: 0
  m_CorrespondingSourceObject: {fileID: 0}
  m_PrefabInstance: {fileID: 0}
  m_PrefabAsset: {fileID: 0}
  serializedVersion: 6
  m_Component:
  - component: {fileID: 160513948229584841}
  - component: {fileID: 8463075885637372453}
  - component: {fileID: 5168937794273979112}
  m_Layer: 0
  m_Name: Fangs
  m_TagString: Fangs
  m_Icon: {fileID: 0}
  m_NavMeshLayer: 0
  m_StaticEditorFlags: 0
  m_IsActive: 1
--- !u!4 &160513948229584841
Transform:
  m_ObjectHideFlags: 0
  m_CorrespondingSourceObject: {fileID: 0}
  m_PrefabInstance: {fileID: 0}
  m_PrefabAsset: {fileID: 0}
  m_GameObject: {fileID: 5391383075313842436}
  m_LocalRotation: {x: -0, y: -0, z: -0, w: 1}
  m_LocalPosition: {x: 0, y: 0, z: 0}
  m_LocalScale: {x: 2, y: 1, z: 1}
  m_Children: []
  m_Father: {fileID: 7930948809067780037}
  m_RootOrder: 3
  m_LocalEulerAnglesHint: {x: 0, y: 0, z: 0}
--- !u!136 &8463075885637372453
CapsuleCollider:
  m_ObjectHideFlags: 0
  m_CorrespondingSourceObject: {fileID: 0}
  m_PrefabInstance: {fileID: 0}
  m_PrefabAsset: {fileID: 0}
  m_GameObject: {fileID: 5391383075313842436}
  m_Material: {fileID: 0}
  m_IsTrigger: 1
  m_Enabled: 0
  m_Radius: 1
  m_Height: 1
  m_Direction: 1
  m_Center: {x: 0, y: 1.5, z: 2}
--- !u!114 &5168937794273979112
MonoBehaviour:
  m_ObjectHideFlags: 0
  m_CorrespondingSourceObject: {fileID: 0}
  m_PrefabInstance: {fileID: 0}
  m_PrefabAsset: {fileID: 0}
  m_GameObject: {fileID: 5391383075313842436}
  m_Enabled: 1
  m_EditorHideFlags: 0
  m_Script: {fileID: 11500000, guid: dc4959d5a2ba5974aabf406b46437d00, type: 3}
  m_Name: 
  m_EditorClassIdentifier: 
--- !u!1 &7930948809067940385
GameObject:
  m_ObjectHideFlags: 0
  m_CorrespondingSourceObject: {fileID: 0}
  m_PrefabInstance: {fileID: 0}
  m_PrefabAsset: {fileID: 0}
  serializedVersion: 6
  m_Component:
  - component: {fileID: 7930948809067780033}
  - component: {fileID: 7930948809073215113}
  m_Layer: 0
  m_Name: Mesh
  m_TagString: Untagged
  m_Icon: {fileID: 0}
  m_NavMeshLayer: 0
  m_StaticEditorFlags: 0
  m_IsActive: 1
--- !u!4 &7930948809067780033
Transform:
  m_ObjectHideFlags: 0
  m_CorrespondingSourceObject: {fileID: 0}
  m_PrefabInstance: {fileID: 0}
  m_PrefabAsset: {fileID: 0}
  m_GameObject: {fileID: 7930948809067940385}
  m_LocalRotation: {x: 0.7071069, y: 0, z: 0, w: 0.70710677}
  m_LocalPosition: {x: 0, y: 0, z: -1.1366785}
  m_LocalScale: {x: 0.024929382, y: 0.024929382, z: 0.024929382}
  m_Children: []
  m_Father: {fileID: 7930948809067780037}
  m_RootOrder: 1
  m_LocalEulerAnglesHint: {x: 0, y: 0, z: 0}
--- !u!137 &7930948809073215113
SkinnedMeshRenderer:
  m_ObjectHideFlags: 0
  m_CorrespondingSourceObject: {fileID: 0}
  m_PrefabInstance: {fileID: 0}
  m_PrefabAsset: {fileID: 0}
  m_GameObject: {fileID: 7930948809067940385}
  m_Enabled: 1
  m_CastShadows: 1
  m_ReceiveShadows: 1
  m_DynamicOccludee: 1
  m_MotionVectors: 1
  m_LightProbeUsage: 0
  m_ReflectionProbeUsage: 1
  m_RenderingLayerMask: 1
  m_RendererPriority: 0
  m_Materials:
  - {fileID: 2100000, guid: 78d88e566e5f7b14aaa719c52b23bd6c, type: 2}
  m_StaticBatchInfo:
    firstSubMesh: 0
    subMeshCount: 0
  m_StaticBatchRoot: {fileID: 0}
  m_ProbeAnchor: {fileID: 0}
  m_LightProbeVolumeOverride: {fileID: 0}
  m_ScaleInLightmap: 1
  m_PreserveUVs: 0
  m_IgnoreNormalsForChartDetection: 0
  m_ImportantGI: 0
  m_StitchLightmapSeams: 1
  m_SelectedEditorRenderState: 3
  m_MinimumChartSize: 4
  m_AutoUVMaxDistance: 0.5
  m_AutoUVMaxAngle: 89
  m_LightmapParameters: {fileID: 0}
  m_SortingLayerID: 0
  m_SortingLayer: 0
  m_SortingOrder: 0
  serializedVersion: 2
  m_Quality: 0
  m_UpdateWhenOffscreen: 0
  m_SkinnedMotionVectors: 1
  m_Mesh: {fileID: 4300000, guid: 130cac6b96af6214296215324b5da188, type: 3}
  m_Bones:
  - {fileID: 7930948809067780095}
  - {fileID: 7930948809067780093}
  - {fileID: 7930948809067780077}
  - {fileID: 7930948809067780017}
  - {fileID: 7930948809067780031}
  - {fileID: 7930948809067780029}
  - {fileID: 7930948809067780073}
  - {fileID: 7930948809067780005}
  - {fileID: 7930948809067780015}
  - {fileID: 7930948809067780011}
  - {fileID: 7930948809067780013}
  - {fileID: 7930948809067780009}
  - {fileID: 7930948809067780003}
  - {fileID: 7930948809067780001}
  - {fileID: 7930948809067780091}
  - {fileID: 7930948809067779991}
  - {fileID: 7930948809067780089}
  - {fileID: 7930948809067779989}
  - {fileID: 7930948809067779987}
  - {fileID: 7930948809067779985}
  - {fileID: 7930948809067780069}
  - {fileID: 7930948809067779993}
  - {fileID: 7930948809067779975}
  - {fileID: 7930948809067779973}
  - {fileID: 7930948809067780065}
  - {fileID: 7930948809067779981}
  - {fileID: 7930948809067779979}
  - {fileID: 7930948809067779977}
  - {fileID: 7930948809067780075}
  - {fileID: 7930948809067780027}
  - {fileID: 7930948809067780025}
  - {fileID: 7930948809067780007}
  - {fileID: 7930948809067780071}
  - {fileID: 7930948809067779999}
  - {fileID: 7930948809067779997}
  - {fileID: 7930948809067779995}
  - {fileID: 7930948809067780067}
  - {fileID: 7930948809067779971}
  - {fileID: 7930948809067779969}
  - {fileID: 7930948809067779983}
  - {fileID: 7930948809067780079}
  - {fileID: 7930948809067780023}
  - {fileID: 7930948809067780021}
  - {fileID: 7930948809067780019}
  - {fileID: 7930948809067780083}
  - {fileID: 7930948809067780047}
  - {fileID: 7930948809067780043}
  - {fileID: 7930948809067780087}
  - {fileID: 7930948809067780081}
  - {fileID: 7930948809067780045}
  - {fileID: 7930948809067780041}
  - {fileID: 7930948809067780085}
  m_BlendShapeWeights: []
  m_RootBone: {fileID: 7930948809067780095}
  m_AABB:
    m_Center: {x: -3.4012403, y: 0.103747725, z: 3.2469306}
    m_Extent: {x: 3.8734274, y: 3.9634128, z: 6.241863}
  m_DirtyAABB: 0
--- !u!1 &7930948809067940387
GameObject:
  m_ObjectHideFlags: 0
  m_CorrespondingSourceObject: {fileID: 0}
  m_PrefabInstance: {fileID: 0}
  m_PrefabAsset: {fileID: 0}
  serializedVersion: 6
  m_Component:
  - component: {fileID: 7930948809067780035}
  m_Layer: 0
  m_Name: Armature
  m_TagString: Untagged
  m_Icon: {fileID: 0}
  m_NavMeshLayer: 0
  m_StaticEditorFlags: 0
  m_IsActive: 1
--- !u!4 &7930948809067780035
Transform:
  m_ObjectHideFlags: 0
  m_CorrespondingSourceObject: {fileID: 0}
  m_PrefabInstance: {fileID: 0}
  m_PrefabAsset: {fileID: 0}
  m_GameObject: {fileID: 7930948809067940387}
  m_LocalRotation: {x: -0.7071069, y: 0, z: -0, w: 0.70710677}
  m_LocalPosition: {x: 0, y: 1.1366785, z: 0}
  m_LocalScale: {x: 1, y: 1, z: 1}
  m_Children:
  - {fileID: 7930948809067780047}
  - {fileID: 7930948809067780045}
  - {fileID: 7930948809067780043}
  - {fileID: 7930948809067780041}
  - {fileID: 7930948809067780087}
  - {fileID: 7930948809067780085}
  - {fileID: 7930948809067780083}
  - {fileID: 7930948809067780081}
  - {fileID: 7930948809067780095}
  m_Father: {fileID: 7930948809067780037}
  m_RootOrder: 0
  m_LocalEulerAnglesHint: {x: -90, y: 0, z: 0}
--- !u!1 &7930948809067940389
GameObject:
  m_ObjectHideFlags: 0
  m_CorrespondingSourceObject: {fileID: 0}
  m_PrefabInstance: {fileID: 0}
  m_PrefabAsset: {fileID: 0}
  serializedVersion: 6
  m_Component:
  - component: {fileID: 7930948809067780037}
  - component: {fileID: 7930948809067940828}
  - component: {fileID: 7930948809067940384}
  - component: {fileID: 7930948809067940826}
  - component: {fileID: 8160800982011237392}
  - component: {fileID: 7930948809067940824}
  - component: {fileID: 7930948809067940386}
  - component: {fileID: 7238501500643466764}
  - component: {fileID: 1944667815208920862}
  m_Layer: 0
  m_Name: SPIDER Level4
  m_TagString: Enemy
  m_Icon: {fileID: 0}
  m_NavMeshLayer: 0
  m_StaticEditorFlags: 0
  m_IsActive: 1
--- !u!4 &7930948809067780037
Transform:
  m_ObjectHideFlags: 0
  m_CorrespondingSourceObject: {fileID: 0}
  m_PrefabInstance: {fileID: 0}
  m_PrefabAsset: {fileID: 0}
  m_GameObject: {fileID: 7930948809067940389}
  m_LocalRotation: {x: 0, y: 0, z: 0, w: 1}
  m_LocalPosition: {x: -73, y: 0.68, z: 12.3}
  m_LocalScale: {x: 0.4, y: 0.4, z: 0.4}
  m_Children:
  - {fileID: 7930948809067780035}
  - {fileID: 7930948809067780033}
  - {fileID: 8371405146422137418}
  - {fileID: 160513948229584841}
  - {fileID: 2547544669525458261}
  - {fileID: 2564284400179485578}
  m_Father: {fileID: 0}
  m_RootOrder: 0
  m_LocalEulerAnglesHint: {x: 0, y: 0, z: 0}
--- !u!195 &7930948809067940828
NavMeshAgent:
  m_ObjectHideFlags: 0
  m_CorrespondingSourceObject: {fileID: 0}
  m_PrefabInstance: {fileID: 0}
  m_PrefabAsset: {fileID: 0}
  m_GameObject: {fileID: 7930948809067940389}
  m_Enabled: 1
  m_AgentTypeID: 0
  m_Radius: 2
  m_Speed: 3.5
  m_Acceleration: 4
  avoidancePriority: 50
  m_AngularSpeed: 420
  m_StoppingDistance: 3
  m_AutoTraverseOffMeshLink: 1
  m_AutoBraking: 0
  m_AutoRepath: 1
  m_Height: 3
  m_BaseOffset: 0
  m_WalkableMask: 4294967295
  m_ObstacleAvoidanceType: 4
--- !u!54 &7930948809067940384
Rigidbody:
  m_ObjectHideFlags: 0
  m_CorrespondingSourceObject: {fileID: 0}
  m_PrefabInstance: {fileID: 0}
  m_PrefabAsset: {fileID: 0}
  m_GameObject: {fileID: 7930948809067940389}
  serializedVersion: 2
  m_Mass: 1
  m_Drag: 0
  m_AngularDrag: 0.05
  m_UseGravity: 0
  m_IsKinematic: 1
  m_Interpolate: 0
  m_Constraints: 4
  m_CollisionDetection: 0
--- !u!95 &7930948809067940826
Animator:
  serializedVersion: 3
  m_ObjectHideFlags: 0
  m_CorrespondingSourceObject: {fileID: 0}
  m_PrefabInstance: {fileID: 0}
  m_PrefabAsset: {fileID: 0}
  m_GameObject: {fileID: 7930948809067940389}
  m_Enabled: 1
  m_Avatar: {fileID: 0}
  m_Controller: {fileID: 9100000, guid: 70472c2cf9695854bbc1eb593ce0159a, type: 2}
  m_CullingMode: 0
  m_UpdateMode: 0
  m_ApplyRootMotion: 0
  m_LinearVelocityBlending: 0
  m_WarningMessage: 
  m_HasTransformHierarchy: 1
  m_AllowConstantClipSamplingOptimization: 1
  m_KeepAnimatorControllerStateOnDisable: 0
--- !u!136 &8160800982011237392
CapsuleCollider:
  m_ObjectHideFlags: 0
  m_CorrespondingSourceObject: {fileID: 0}
  m_PrefabInstance: {fileID: 0}
  m_PrefabAsset: {fileID: 0}
  m_GameObject: {fileID: 7930948809067940389}
  m_Material: {fileID: 0}
  m_IsTrigger: 0
  m_Enabled: 1
  m_Radius: 2
  m_Height: 7
  m_Direction: 1
  m_Center: {x: 0, y: 1.2, z: 0}
--- !u!114 &7930948809067940824
MonoBehaviour:
  m_ObjectHideFlags: 0
  m_CorrespondingSourceObject: {fileID: 0}
  m_PrefabInstance: {fileID: 0}
  m_PrefabAsset: {fileID: 0}
  m_GameObject: {fileID: 7930948809067940389}
  m_Enabled: 1
  m_EditorHideFlags: 0
  m_Script: {fileID: 11500000, guid: 0f932f0f8135cb541abaeb68000bcff2, type: 3}
  m_Name: 
  m_EditorClassIdentifier: 
  isDead: 0
  swordCollider: {fileID: 0}
  bodyCollider: {fileID: 0}
  fangsCollider: {fileID: 0}
  keyDrop: {fileID: 7287554015798859274, guid: 6087d4e9948bf864ebbb4de231ad97f9, type: 3}
  fireDrop: {fileID: 3827314778689750531, guid: e707b2c48aab8194dac6f12a6c655ad6,
    type: 3}
  player: {fileID: 0}
  hud: {fileID: 0}
  navMeshAgent: {fileID: 7930948809067940828}
  animator: {fileID: 0}
  squash: {fileID: 8300000, guid: e36b85ae57d4fea4b94da9a3a070d812, type: 3}
  canAttack: 1
  attackPause: 1.5
  attackDistance: 3.5
  health: 100
  enemyFOV: 180
  aggroDistance: 8
  aggroLossDistance: 30
  wanderRadius: 5
  maxPathDecisionTime: 0.5
  spiderHit: {fileID: 8300000, guid: e36b85ae57d4fea4b94da9a3a070d812, type: 3}
--- !u!114 &7930948809067940386
MonoBehaviour:
  m_ObjectHideFlags: 0
  m_CorrespondingSourceObject: {fileID: 0}
  m_PrefabInstance: {fileID: 0}
  m_PrefabAsset: {fileID: 0}
  m_GameObject: {fileID: 7930948809067940389}
  m_Enabled: 1
  m_EditorHideFlags: 0
  m_Script: {fileID: 11500000, guid: 3075f0a096317274a9ab6682120140f4, type: 3}
  m_Name: 
  m_EditorClassIdentifier: 
  sword: {fileID: 8371405146422137417}
  fangs: {fileID: 8463075885637372453}
  flames: {fileID: 0}
  eyes: {fileID: 7930948809067940385}
  player: {fileID: 0}
--- !u!114 &7238501500643466764
MonoBehaviour:
  m_ObjectHideFlags: 0
  m_CorrespondingSourceObject: {fileID: 0}
  m_PrefabInstance: {fileID: 0}
  m_PrefabAsset: {fileID: 0}
  m_GameObject: {fileID: 7930948809067940389}
  m_Enabled: 1
  m_EditorHideFlags: 0
  m_Script: {fileID: 11500000, guid: fdde4cf20690be241b682dd50d10f0cc, type: 3}
  m_Name: 
  m_EditorClassIdentifier: 
  hasKey: 0
  hasFire: 0
  hasHealth: 0
--- !u!114 &1944667815208920862
MonoBehaviour:
  m_ObjectHideFlags: 0
  m_CorrespondingSourceObject: {fileID: 0}
  m_PrefabInstance: {fileID: 0}
  m_PrefabAsset: {fileID: 0}
  m_GameObject: {fileID: 7930948809067940389}
  m_Enabled: 1
  m_EditorHideFlags: 0
  m_Script: {fileID: 11500000, guid: da7436eadd775bf488b4f6adf49f43be, type: 3}
  m_Name: 
  m_EditorClassIdentifier: 
  damage: 15
  knockback: 1
  poisonous: 0
  poisonTimer: 0
  poisonDamage: 0
  specialDamage: 0
  specialKnockback: 0
  specialPoisonous: 1
  specialPoisonTimer: 5
  specialPoisonDamage: 20
--- !u!1 &7930948809067940393
GameObject:
  m_ObjectHideFlags: 0
  m_CorrespondingSourceObject: {fileID: 0}
  m_PrefabInstance: {fileID: 0}
  m_PrefabAsset: {fileID: 0}
  serializedVersion: 6
  m_Component:
  - component: {fileID: 7930948809067780041}
  m_Layer: 0
  m_Name: IKnoga_002_R
  m_TagString: Untagged
  m_Icon: {fileID: 0}
  m_NavMeshLayer: 0
  m_StaticEditorFlags: 0
  m_IsActive: 1
--- !u!4 &7930948809067780041
Transform:
  m_ObjectHideFlags: 0
  m_CorrespondingSourceObject: {fileID: 0}
  m_PrefabInstance: {fileID: 0}
  m_PrefabAsset: {fileID: 0}
  m_GameObject: {fileID: 7930948809067940393}
  m_LocalRotation: {x: 0.54036444, y: 0.04108529, z: 0.8380087, w: -0.06371637}
  m_LocalPosition: {x: 1.5966114, y: 0.012614969, z: 0.7734493}
  m_LocalScale: {x: 0.9999998, y: 0.9999997, z: 0.9999998}
  m_Children: []
  m_Father: {fileID: 7930948809067780035}
  m_RootOrder: 3
  m_LocalEulerAnglesHint: {x: -7.9159327, y: 65.37947, z: -176.38867}
--- !u!1 &7930948809067940395
GameObject:
  m_ObjectHideFlags: 0
  m_CorrespondingSourceObject: {fileID: 0}
  m_PrefabInstance: {fileID: 0}
  m_PrefabAsset: {fileID: 0}
  serializedVersion: 6
  m_Component:
  - component: {fileID: 7930948809067780043}
  m_Layer: 0
  m_Name: IKnoga_002_L
  m_TagString: Untagged
  m_Icon: {fileID: 0}
  m_NavMeshLayer: 0
  m_StaticEditorFlags: 0
  m_IsActive: 1
--- !u!4 &7930948809067780043
Transform:
  m_ObjectHideFlags: 0
  m_CorrespondingSourceObject: {fileID: 0}
  m_PrefabInstance: {fileID: 0}
  m_PrefabAsset: {fileID: 0}
  m_GameObject: {fileID: 7930948809067940395}
  m_LocalRotation: {x: -0.04108549, y: -0.5403643, z: -0.0637163, w: 0.8380087}
  m_LocalPosition: {x: -1.5966114, y: 0.012614969, z: 0.7734493}
  m_LocalScale: {x: 0.9999998, y: 0.9999997, z: 0.9999998}
  m_Children: []
  m_Father: {fileID: 7930948809067780035}
  m_RootOrder: 2
  m_LocalEulerAnglesHint: {x: -7.9159307, y: -65.37947, z: -3.6113112}
--- !u!1 &7930948809067940397
GameObject:
  m_ObjectHideFlags: 0
  m_CorrespondingSourceObject: {fileID: 0}
  m_PrefabInstance: {fileID: 0}
  m_PrefabAsset: {fileID: 0}
  serializedVersion: 6
  m_Component:
  - component: {fileID: 7930948809067780045}
  m_Layer: 0
  m_Name: IKnoga_001_R
  m_TagString: Untagged
  m_Icon: {fileID: 0}
  m_NavMeshLayer: 0
  m_StaticEditorFlags: 0
  m_IsActive: 1
--- !u!4 &7930948809067780045
Transform:
  m_ObjectHideFlags: 0
  m_CorrespondingSourceObject: {fileID: 0}
  m_PrefabInstance: {fileID: 0}
  m_PrefabAsset: {fileID: 0}
  m_GameObject: {fileID: 7930948809067940397}
  m_LocalRotation: {x: 0.42914185, y: -0.11207442, z: 0.8671724, w: 0.22646992}
  m_LocalPosition: {x: 1.4994124, y: -0.95864797, z: 0.7189321}
  m_LocalScale: {x: 1, y: 0.99999976, z: 0.9999999}
  m_Children: []
  m_Father: {fileID: 7930948809067780035}
  m_RootOrder: 1
  m_LocalEulerAnglesHint: {x: 22.876827, y: 48.8269, z: 161.22179}
--- !u!1 &7930948809067940399
GameObject:
  m_ObjectHideFlags: 0
  m_CorrespondingSourceObject: {fileID: 0}
  m_PrefabInstance: {fileID: 0}
  m_PrefabAsset: {fileID: 0}
  serializedVersion: 6
  m_Component:
  - component: {fileID: 7930948809067780047}
  m_Layer: 0
  m_Name: IKnoga_001_L
  m_TagString: Untagged
  m_Icon: {fileID: 0}
  m_NavMeshLayer: 0
  m_StaticEditorFlags: 0
  m_IsActive: 1
--- !u!4 &7930948809067780047
Transform:
  m_ObjectHideFlags: 0
  m_CorrespondingSourceObject: {fileID: 0}
  m_PrefabInstance: {fileID: 0}
  m_PrefabAsset: {fileID: 0}
  m_GameObject: {fileID: 7930948809067940399}
  m_LocalRotation: {x: 0.11207449, y: -0.4291419, z: 0.22647004, w: 0.86717236}
  m_LocalPosition: {x: -1.4994124, y: -0.95864797, z: 0.7189321}
  m_LocalScale: {x: 0.9999998, y: 0.9999999, z: 0.9999999}
  m_Children: []
  m_Father: {fileID: 7930948809067780035}
  m_RootOrder: 0
  m_LocalEulerAnglesHint: {x: 22.876823, y: -48.82691, z: 18.778206}
--- !u!1 &7930948809067940737
GameObject:
  m_ObjectHideFlags: 0
  m_CorrespondingSourceObject: {fileID: 0}
  m_PrefabInstance: {fileID: 0}
  m_PrefabAsset: {fileID: 0}
  serializedVersion: 6
  m_Component:
  - component: {fileID: 7930948809067780001}
  m_Layer: 0
  m_Name: IKzub_R
  m_TagString: Untagged
  m_Icon: {fileID: 0}
  m_NavMeshLayer: 0
  m_StaticEditorFlags: 0
  m_IsActive: 1
--- !u!4 &7930948809067780001
Transform:
  m_ObjectHideFlags: 0
  m_CorrespondingSourceObject: {fileID: 0}
  m_PrefabInstance: {fileID: 0}
  m_PrefabAsset: {fileID: 0}
  m_GameObject: {fileID: 7930948809067940737}
  m_LocalRotation: {x: 0.0023643917, y: -0.05951564, z: -0.4204373, w: 0.90536445}
  m_LocalPosition: {x: -1.2028916, y: -0.5274655, z: -0.024570206}
  m_LocalScale: {x: 1, y: 0.9999999, z: 1}
  m_Children: []
  m_Father: {fileID: 7930948809067780005}
  m_RootOrder: 1
  m_LocalEulerAnglesHint: {x: 1.6344419, y: -6.137324, z: -33.121967}
--- !u!1 &7930948809067940739
GameObject:
  m_ObjectHideFlags: 0
  m_CorrespondingSourceObject: {fileID: 0}
  m_PrefabInstance: {fileID: 0}
  m_PrefabAsset: {fileID: 0}
  serializedVersion: 6
  m_Component:
  - component: {fileID: 7930948809067780003}
  m_Layer: 0
  m_Name: IKzub_L
  m_TagString: Untagged
  m_Icon: {fileID: 0}
  m_NavMeshLayer: 0
  m_StaticEditorFlags: 0
  m_IsActive: 1
--- !u!4 &7930948809067780003
Transform:
  m_ObjectHideFlags: 0
  m_CorrespondingSourceObject: {fileID: 0}
  m_PrefabInstance: {fileID: 0}
  m_PrefabAsset: {fileID: 0}
  m_GameObject: {fileID: 7930948809067940739}
  m_LocalRotation: {x: -0.002364537, y: -0.05951558, z: 0.42043728, w: 0.90536445}
  m_LocalPosition: {x: -1.2028915, y: 0.52746576, z: -0.024570366}
  m_LocalScale: {x: 1.0000001, y: 0.9999999, z: 1.0000001}
  m_Children: []
  m_Father: {fileID: 7930948809067780005}
  m_RootOrder: 0
  m_LocalEulerAnglesHint: {x: -1.1613133, y: -6.6286964, z: 35.194027}
--- !u!1 &7930948809067940741
GameObject:
  m_ObjectHideFlags: 0
  m_CorrespondingSourceObject: {fileID: 0}
  m_PrefabInstance: {fileID: 0}
  m_PrefabAsset: {fileID: 0}
  serializedVersion: 6
  m_Component:
  - component: {fileID: 7930948809067780005}
  m_Layer: 0
  m_Name: Head
  m_TagString: Untagged
  m_Icon: {fileID: 0}
  m_NavMeshLayer: 0
  m_StaticEditorFlags: 0
  m_IsActive: 1
--- !u!4 &7930948809067780005
Transform:
  m_ObjectHideFlags: 0
  m_CorrespondingSourceObject: {fileID: 0}
  m_PrefabInstance: {fileID: 0}
  m_PrefabAsset: {fileID: 0}
  m_GameObject: {fileID: 7930948809067940741}
  m_LocalRotation: {x: 0.0000001795684, y: -0.17069401, z: 0.000000007566221, w: 0.9853241}
  m_LocalPosition: {x: -0.2800845, y: 0.000000021145775, z: 0.000000014901161}
  m_LocalScale: {x: 1, y: 1, z: 1}
  m_Children:
  - {fileID: 7930948809067780003}
  - {fileID: 7930948809067780001}
  - {fileID: 7930948809067780015}
  - {fileID: 7930948809067780013}
  m_Father: {fileID: 7930948809067780073}
  m_RootOrder: 0
  m_LocalEulerAnglesHint: {x: 1.0885372, y: -29.868425, z: 5.9888244}
--- !u!1 &7930948809067940743
GameObject:
  m_ObjectHideFlags: 0
  m_CorrespondingSourceObject: {fileID: 0}
  m_PrefabInstance: {fileID: 0}
  m_PrefabAsset: {fileID: 0}
  serializedVersion: 6
  m_Component:
  - component: {fileID: 7930948809067780073}
  m_Layer: 0
  m_Name: Sheya
  m_TagString: Untagged
  m_Icon: {fileID: 0}
  m_NavMeshLayer: 0
  m_StaticEditorFlags: 0
  m_IsActive: 1
--- !u!4 &7930948809067780073
Transform:
  m_ObjectHideFlags: 0
  m_CorrespondingSourceObject: {fileID: 0}
  m_PrefabInstance: {fileID: 0}
  m_PrefabAsset: {fileID: 0}
  m_GameObject: {fileID: 7930948809067940743}
  m_LocalRotation: {x: 0.97786343, y: 0.00027610158, z: 0.20924407, w: 0.000064236054}
  m_LocalPosition: {x: -1.790976, y: 0.00000013526392, z: -0.000000013038515}
  m_LocalScale: {x: 0.9999999, y: 1.0000002, z: 1}
  m_Children:
  - {fileID: 7930948809067780005}
  m_Father: {fileID: 7930948809067780093}
  m_RootOrder: 9
  m_LocalEulerAnglesHint: {x: -0.013811014, y: 155.84389, z: 179.97058}
--- !u!1 &7930948809067940745
GameObject:
  m_ObjectHideFlags: 0
  m_CorrespondingSourceObject: {fileID: 0}
  m_PrefabInstance: {fileID: 0}
  m_PrefabAsset: {fileID: 0}
  serializedVersion: 6
  m_Component:
  - component: {fileID: 7930948809067780009}
  m_Layer: 0
  m_Name: zubB_R
  m_TagString: Untagged
  m_Icon: {fileID: 0}
  m_NavMeshLayer: 0
  m_StaticEditorFlags: 0
  m_IsActive: 1
--- !u!4 &7930948809067780009
Transform:
  m_ObjectHideFlags: 0
  m_CorrespondingSourceObject: {fileID: 0}
  m_PrefabInstance: {fileID: 0}
  m_PrefabAsset: {fileID: 0}
  m_GameObject: {fileID: 7930948809067940745}
  m_LocalRotation: {x: -0.004840679, y: -0.042629886, z: -0.5402634, w: 0.84040153}
  m_LocalPosition: {x: -0.37586236, y: 0.00000007246231, z: 0.00000002561137}
  m_LocalScale: {x: 0.9999999, y: 0.9999999, z: 1.0000001}
  m_Children: []
  m_Father: {fileID: 7930948809067780013}
  m_RootOrder: 0
  m_LocalEulerAnglesHint: {x: 1.0997137, y: -10.860791, z: -47.335705}
--- !u!1 &7930948809067940747
GameObject:
  m_ObjectHideFlags: 0
  m_CorrespondingSourceObject: {fileID: 0}
  m_PrefabInstance: {fileID: 0}
  m_PrefabAsset: {fileID: 0}
  serializedVersion: 6
  m_Component:
  - component: {fileID: 7930948809067780013}
  m_Layer: 0
  m_Name: zubA_R
  m_TagString: Untagged
  m_Icon: {fileID: 0}
  m_NavMeshLayer: 0
  m_StaticEditorFlags: 0
  m_IsActive: 1
--- !u!4 &7930948809067780013
Transform:
  m_ObjectHideFlags: 0
  m_CorrespondingSourceObject: {fileID: 0}
  m_PrefabInstance: {fileID: 0}
  m_PrefabAsset: {fileID: 0}
  m_GameObject: {fileID: 7930948809067940747}
  m_LocalRotation: {x: -0.007087373, y: -0.01465439, z: 0.12531823, w: 0.99198306}
  m_LocalPosition: {x: -0.8155596, y: -0.43018425, z: -0.05608448}
  m_LocalScale: {x: 1, y: 1, z: 0.9999998}
  m_Children:
  - {fileID: 7930948809067780009}
  m_Father: {fileID: 7930948809067780005}
  m_RootOrder: 3
  m_LocalEulerAnglesHint: {x: -2.0912485, y: 4.124744, z: 14.06383}
--- !u!1 &7930948809067940749
GameObject:
  m_ObjectHideFlags: 0
  m_CorrespondingSourceObject: {fileID: 0}
  m_PrefabInstance: {fileID: 0}
  m_PrefabAsset: {fileID: 0}
  serializedVersion: 6
  m_Component:
  - component: {fileID: 7930948809067780011}
  m_Layer: 0
  m_Name: zubB_L
  m_TagString: Untagged
  m_Icon: {fileID: 0}
  m_NavMeshLayer: 0
  m_StaticEditorFlags: 0
  m_IsActive: 1
--- !u!4 &7930948809067780011
Transform:
  m_ObjectHideFlags: 0
  m_CorrespondingSourceObject: {fileID: 0}
  m_PrefabInstance: {fileID: 0}
  m_PrefabAsset: {fileID: 0}
  m_GameObject: {fileID: 7930948809067940749}
  m_LocalRotation: {x: 0.0048406683, y: -0.04262989, z: 0.5402635, w: 0.8404015}
  m_LocalPosition: {x: -0.3758625, y: 0.000000018761096, z: -0.000000003259629}
  m_LocalScale: {x: 0.9999999, y: 0.9999999, z: 1.0000001}
  m_Children: []
  m_Father: {fileID: 7930948809067780015}
  m_RootOrder: 0
  m_LocalEulerAnglesHint: {x: -0.52046394, y: -11.221184, z: 49.40151}
--- !u!1 &7930948809067940751
GameObject:
  m_ObjectHideFlags: 0
  m_CorrespondingSourceObject: {fileID: 0}
  m_PrefabInstance: {fileID: 0}
  m_PrefabAsset: {fileID: 0}
  serializedVersion: 6
  m_Component:
  - component: {fileID: 7930948809067780015}
  m_Layer: 0
  m_Name: zubA_L
  m_TagString: Untagged
  m_Icon: {fileID: 0}
  m_NavMeshLayer: 0
  m_StaticEditorFlags: 0
  m_IsActive: 1
--- !u!4 &7930948809067780015
Transform:
  m_ObjectHideFlags: 0
  m_CorrespondingSourceObject: {fileID: 0}
  m_PrefabInstance: {fileID: 0}
  m_PrefabAsset: {fileID: 0}
  m_GameObject: {fileID: 7930948809067940751}
  m_LocalRotation: {x: 0.0070872214, y: -0.014654409, z: -0.12531823, w: 0.99198306}
  m_LocalPosition: {x: -0.8155595, y: 0.4301843, z: -0.056084607}
  m_LocalScale: {x: 1, y: 1, z: 0.9999998}
  m_Children:
  - {fileID: 7930948809067780011}
  m_Father: {fileID: 7930948809067780005}
  m_RootOrder: 2
  m_LocalEulerAnglesHint: {x: 2.0912368, y: 4.124761, z: -14.063831}
--- !u!1 &7930948809067940753
GameObject:
  m_ObjectHideFlags: 0
  m_CorrespondingSourceObject: {fileID: 0}
  m_PrefabInstance: {fileID: 0}
  m_PrefabAsset: {fileID: 0}
  serializedVersion: 6
  m_Component:
  - component: {fileID: 7930948809067780029}
  m_Layer: 0
  m_Name: nogaD_L
  m_TagString: Untagged
  m_Icon: {fileID: 0}
  m_NavMeshLayer: 0
  m_StaticEditorFlags: 0
  m_IsActive: 1
--- !u!4 &7930948809067780029
Transform:
  m_ObjectHideFlags: 0
  m_CorrespondingSourceObject: {fileID: 0}
  m_PrefabInstance: {fileID: 0}
  m_PrefabAsset: {fileID: 0}
  m_GameObject: {fileID: 7930948809067940753}
  m_LocalRotation: {x: 0.029771505, y: 0.8715136, z: -0.17533238, w: -0.4569861}
  m_LocalPosition: {x: -0.7309985, y: 0.00000015439332, z: 0.00000011920929}
  m_LocalScale: {x: 1.0000001, y: 1, z: 1}
  m_Children: []
  m_Father: {fileID: 7930948809067780031}
  m_RootOrder: 0
  m_LocalEulerAnglesHint: {x: 17.07783, y: -128.70486, z: 26.990734}
--- !u!1 &7930948809067940755
GameObject:
  m_ObjectHideFlags: 0
  m_CorrespondingSourceObject: {fileID: 0}
  m_PrefabInstance: {fileID: 0}
  m_PrefabAsset: {fileID: 0}
  serializedVersion: 6
  m_Component:
  - component: {fileID: 7930948809067780031}
  m_Layer: 0
  m_Name: nogaC_L
  m_TagString: Untagged
  m_Icon: {fileID: 0}
  m_NavMeshLayer: 0
  m_StaticEditorFlags: 0
  m_IsActive: 1
--- !u!4 &7930948809067780031
Transform:
  m_ObjectHideFlags: 0
  m_CorrespondingSourceObject: {fileID: 0}
  m_PrefabInstance: {fileID: 0}
  m_PrefabAsset: {fileID: 0}
  m_GameObject: {fileID: 7930948809067940755}
  m_LocalRotation: {x: -0.00786524, y: 0.1028034, z: 0.0034911043, w: 0.9946645}
  m_LocalPosition: {x: -0.5602981, y: -0.000000011357855, z: 0.000000059604645}
  m_LocalScale: {x: 0.99999994, y: 1.0000001, z: 1.0000001}
  m_Children:
  - {fileID: 7930948809067780029}
  m_Father: {fileID: 7930948809067780017}
  m_RootOrder: 0
  m_LocalEulerAnglesHint: {x: 4.718741, y: 70.30015, z: -10.712553}
--- !u!1 &7930948809067940757
GameObject:
  m_ObjectHideFlags: 0
  m_CorrespondingSourceObject: {fileID: 0}
  m_PrefabInstance: {fileID: 0}
  m_PrefabAsset: {fileID: 0}
  serializedVersion: 6
  m_Component:
  - component: {fileID: 7930948809067780017}
  m_Layer: 0
  m_Name: nogaB_L
  m_TagString: Untagged
  m_Icon: {fileID: 0}
  m_NavMeshLayer: 0
  m_StaticEditorFlags: 0
  m_IsActive: 1
--- !u!4 &7930948809067780017
Transform:
  m_ObjectHideFlags: 0
  m_CorrespondingSourceObject: {fileID: 0}
  m_PrefabInstance: {fileID: 0}
  m_PrefabAsset: {fileID: 0}
  m_GameObject: {fileID: 7930948809067940757}
  m_LocalRotation: {x: 0.053396795, y: 0.065003656, z: -0.035436735, w: 0.99582505}
  m_LocalPosition: {x: -0.54141486, y: 0.00000007507795, z: 0.000000029802322}
  m_LocalScale: {x: 1, y: 1.0000001, z: 1.0000002}
  m_Children:
  - {fileID: 7930948809067780031}
  m_Father: {fileID: 7930948809067780077}
  m_RootOrder: 0
  m_LocalEulerAnglesHint: {x: 6.151805, y: 21.619745, z: -13.88567}
--- !u!1 &7930948809067940759
GameObject:
  m_ObjectHideFlags: 0
  m_CorrespondingSourceObject: {fileID: 0}
  m_PrefabInstance: {fileID: 0}
  m_PrefabAsset: {fileID: 0}
  serializedVersion: 6
  m_Component:
  - component: {fileID: 7930948809067780077}
  m_Layer: 0
  m_Name: nogaA_L
  m_TagString: Untagged
  m_Icon: {fileID: 0}
  m_NavMeshLayer: 0
  m_StaticEditorFlags: 0
  m_IsActive: 1
--- !u!4 &7930948809067780077
Transform:
  m_ObjectHideFlags: 0
  m_CorrespondingSourceObject: {fileID: 0}
  m_PrefabInstance: {fileID: 0}
  m_PrefabAsset: {fileID: 0}
  m_GameObject: {fileID: 7930948809067940759}
  m_LocalRotation: {x: 0.8196382, y: 0.35950783, z: 0.4096565, w: -0.1764339}
  m_LocalPosition: {x: -1.8632416, y: -0.55401176, z: -0.10224828}
  m_LocalScale: {x: 1.0000002, y: 0.99999976, z: 1}
  m_Children:
  - {fileID: 7930948809067780017}
  m_Father: {fileID: 7930948809067780093}
  m_RootOrder: 7
  m_LocalEulerAnglesHint: {x: -0.65022004, y: -0.029434204, z: 141.21825}
--- !u!1 &7930948809067940761
GameObject:
  m_ObjectHideFlags: 0
  m_CorrespondingSourceObject: {fileID: 0}
  m_PrefabInstance: {fileID: 0}
  m_PrefabAsset: {fileID: 0}
  serializedVersion: 6
  m_Component:
  - component: {fileID: 7930948809067780007}
  m_Layer: 0
  m_Name: nogaD_R
  m_TagString: Untagged
  m_Icon: {fileID: 0}
  m_NavMeshLayer: 0
  m_StaticEditorFlags: 0
  m_IsActive: 1
--- !u!4 &7930948809067780007
Transform:
  m_ObjectHideFlags: 0
  m_CorrespondingSourceObject: {fileID: 0}
  m_PrefabInstance: {fileID: 0}
  m_PrefabAsset: {fileID: 0}
  m_GameObject: {fileID: 7930948809067940761}
  m_LocalRotation: {x: -0.029771373, y: 0.87151355, z: 0.17533246, w: -0.4569862}
  m_LocalPosition: {x: -0.7309986, y: 0.00000008166081, z: 0.000000059604645}
  m_LocalScale: {x: 0.9999998, y: 0.99999976, z: 1}
  m_Children: []
  m_Father: {fileID: 7930948809067780025}
  m_RootOrder: 0
  m_LocalEulerAnglesHint: {x: -0.6967613, y: -143.73616, z: -27.76875}
--- !u!1 &7930948809067940763
GameObject:
  m_ObjectHideFlags: 0
  m_CorrespondingSourceObject: {fileID: 0}
  m_PrefabInstance: {fileID: 0}
  m_PrefabAsset: {fileID: 0}
  serializedVersion: 6
  m_Component:
  - component: {fileID: 7930948809067780025}
  m_Layer: 0
  m_Name: nogaC_R
  m_TagString: Untagged
  m_Icon: {fileID: 0}
  m_NavMeshLayer: 0
  m_StaticEditorFlags: 0
  m_IsActive: 1
--- !u!4 &7930948809067780025
Transform:
  m_ObjectHideFlags: 0
  m_CorrespondingSourceObject: {fileID: 0}
  m_PrefabInstance: {fileID: 0}
  m_PrefabAsset: {fileID: 0}
  m_GameObject: {fileID: 7930948809067940763}
  m_LocalRotation: {x: 0.007865242, y: 0.10280339, z: -0.0034911113, w: 0.9946645}
  m_LocalPosition: {x: -0.56029785, y: 0.00000004157131, z: -0.00000011920929}
  m_LocalScale: {x: 0.9999999, y: 0.9999997, z: 0.9999999}
  m_Children:
  - {fileID: 7930948809067780007}
  m_Father: {fileID: 7930948809067780027}
  m_RootOrder: 0
  m_LocalEulerAnglesHint: {x: 1.3369454, y: 79.66533, z: 0.75056976}
--- !u!1 &7930948809067940765
GameObject:
  m_ObjectHideFlags: 0
  m_CorrespondingSourceObject: {fileID: 0}
  m_PrefabInstance: {fileID: 0}
  m_PrefabAsset: {fileID: 0}
  serializedVersion: 6
  m_Component:
  - component: {fileID: 7930948809067780027}
  m_Layer: 0
  m_Name: nogaB_R
  m_TagString: Untagged
  m_Icon: {fileID: 0}
  m_NavMeshLayer: 0
  m_StaticEditorFlags: 0
  m_IsActive: 1
--- !u!4 &7930948809067780027
Transform:
  m_ObjectHideFlags: 0
  m_CorrespondingSourceObject: {fileID: 0}
  m_PrefabInstance: {fileID: 0}
  m_PrefabAsset: {fileID: 0}
  m_GameObject: {fileID: 7930948809067940765}
  m_LocalRotation: {x: -0.053396873, y: 0.06500369, z: 0.035436697, w: 0.99582505}
  m_LocalPosition: {x: -0.5414149, y: 0.00000011355864, z: -0.00000011920929}
  m_LocalScale: {x: 0.9999999, y: 1, z: 1}
  m_Children:
  - {fileID: 7930948809067780025}
  m_Father: {fileID: 7930948809067780075}
  m_RootOrder: 0
  m_LocalEulerAnglesHint: {x: -6.1299205, y: 30.74576, z: 3.6621888}
--- !u!1 &7930948809067940767
GameObject:
  m_ObjectHideFlags: 0
  m_CorrespondingSourceObject: {fileID: 0}
  m_PrefabInstance: {fileID: 0}
  m_PrefabAsset: {fileID: 0}
  serializedVersion: 6
  m_Component:
  - component: {fileID: 7930948809067780075}
  m_Layer: 0
  m_Name: nogaA_R
  m_TagString: Untagged
  m_Icon: {fileID: 0}
  m_NavMeshLayer: 0
  m_StaticEditorFlags: 0
  m_IsActive: 1
--- !u!4 &7930948809067780075
Transform:
  m_ObjectHideFlags: 0
  m_CorrespondingSourceObject: {fileID: 0}
  m_PrefabInstance: {fileID: 0}
  m_PrefabAsset: {fileID: 0}
  m_GameObject: {fileID: 7930948809067940767}
  m_LocalRotation: {x: 0.81984365, y: -0.3590473, z: 0.40975285, w: 0.17619315}
  m_LocalPosition: {x: -1.8638698, y: 0.55393165, z: -0.10223702}
  m_LocalScale: {x: 1, y: 0.9999999, z: 0.99999994}
  m_Children:
  - {fileID: 7930948809067780027}
  m_Father: {fileID: 7930948809067780093}
  m_RootOrder: 8
  m_LocalEulerAnglesHint: {x: -0.02908764, y: -178.0077, z: -134.05965}
--- !u!1 &7930948809067940801
GameObject:
  m_ObjectHideFlags: 0
  m_CorrespondingSourceObject: {fileID: 0}
  m_PrefabInstance: {fileID: 0}
  m_PrefabAsset: {fileID: 0}
  serializedVersion: 6
  m_Component:
  - component: {fileID: 7930948809067779985}
  m_Layer: 0
  m_Name: nogaD_001_L
  m_TagString: Untagged
  m_Icon: {fileID: 0}
  m_NavMeshLayer: 0
  m_StaticEditorFlags: 0
  m_IsActive: 1
--- !u!4 &7930948809067779985
Transform:
  m_ObjectHideFlags: 0
  m_CorrespondingSourceObject: {fileID: 0}
  m_PrefabInstance: {fileID: 0}
  m_PrefabAsset: {fileID: 0}
  m_GameObject: {fileID: 7930948809067940801}
  m_LocalRotation: {x: 0.003134115, y: -0.83410895, z: -0.113457665, w: 0.5397961}
  m_LocalPosition: {x: -0.51538575, y: 0.000000043021057, z: -0.00000017881393}
  m_LocalScale: {x: 1, y: 0.99999976, z: 1}
  m_Children: []
  m_Father: {fileID: 7930948809067779987}
  m_RootOrder: 0
  m_LocalEulerAnglesHint: {x: -1.902013, y: -89.05967, z: -2.8634965}
--- !u!1 &7930948809067940803
GameObject:
  m_ObjectHideFlags: 0
  m_CorrespondingSourceObject: {fileID: 0}
  m_PrefabInstance: {fileID: 0}
  m_PrefabAsset: {fileID: 0}
  serializedVersion: 6
  m_Component:
  - component: {fileID: 7930948809067779987}
  m_Layer: 0
  m_Name: nogaC_001_L
  m_TagString: Untagged
  m_Icon: {fileID: 0}
  m_NavMeshLayer: 0
  m_StaticEditorFlags: 0
  m_IsActive: 1
--- !u!4 &7930948809067779987
Transform:
  m_ObjectHideFlags: 0
  m_CorrespondingSourceObject: {fileID: 0}
  m_PrefabInstance: {fileID: 0}
  m_PrefabAsset: {fileID: 0}
  m_GameObject: {fileID: 7930948809067940803}
  m_LocalRotation: {x: -0.07856684, y: 0.06866448, z: 0.055592347, w: 0.9929864}
  m_LocalPosition: {x: -0.40517938, y: -0.000000048931003, z: 0.000000014901161}
  m_LocalScale: {x: 0.99999994, y: 1.0000001, z: 1}
  m_Children:
  - {fileID: 7930948809067779985}
  m_Father: {fileID: 7930948809067779989}
  m_RootOrder: 0
  m_LocalEulerAnglesHint: {x: -9.020857, y: -0.48359114, z: -0.49926525}
--- !u!1 &7930948809067940805
GameObject:
  m_ObjectHideFlags: 0
  m_CorrespondingSourceObject: {fileID: 0}
  m_PrefabInstance: {fileID: 0}
  m_PrefabAsset: {fileID: 0}
  serializedVersion: 6
  m_Component:
  - component: {fileID: 7930948809067779989}
  m_Layer: 0
  m_Name: nogaB_001_L
  m_TagString: Untagged
  m_Icon: {fileID: 0}
  m_NavMeshLayer: 0
  m_StaticEditorFlags: 0
  m_IsActive: 1
--- !u!4 &7930948809067779989
Transform:
  m_ObjectHideFlags: 0
  m_CorrespondingSourceObject: {fileID: 0}
  m_PrefabInstance: {fileID: 0}
  m_PrefabAsset: {fileID: 0}
  m_GameObject: {fileID: 7930948809067940805}
  m_LocalRotation: {x: -0.07943691, y: 0.13639216, z: 0.08557837, w: 0.9837496}
  m_LocalPosition: {x: -0.5161674, y: 0.000000077374814, z: 0.00000013783574}
  m_LocalScale: {x: 1, y: 0.99999976, z: 0.99999994}
  m_Children:
  - {fileID: 7930948809067779987}
  m_Father: {fileID: 7930948809067780089}
  m_RootOrder: 0
  m_LocalEulerAnglesHint: {x: -9.05729, y: 0.7123581, z: 0.50284696}
--- !u!1 &7930948809067940807
GameObject:
  m_ObjectHideFlags: 0
  m_CorrespondingSourceObject: {fileID: 0}
  m_PrefabInstance: {fileID: 0}
  m_PrefabAsset: {fileID: 0}
  serializedVersion: 6
  m_Component:
  - component: {fileID: 7930948809067780089}
  m_Layer: 0
  m_Name: nogaA_001_L
  m_TagString: Untagged
  m_Icon: {fileID: 0}
  m_NavMeshLayer: 0
  m_StaticEditorFlags: 0
  m_IsActive: 1
--- !u!4 &7930948809067780089
Transform:
  m_ObjectHideFlags: 0
  m_CorrespondingSourceObject: {fileID: 0}
  m_PrefabInstance: {fileID: 0}
  m_PrefabAsset: {fileID: 0}
  m_GameObject: {fileID: 7930948809067940807}
  m_LocalRotation: {x: 0.7661332, y: 0.5675518, z: 0.24444619, w: -0.17655306}
  m_LocalPosition: {x: -1.3507351, y: -0.6680676, z: 0.44461274}
  m_LocalScale: {x: 0.99999976, y: 0.9999999, z: 0.99999976}
  m_Children:
  - {fileID: 7930948809067779989}
  m_Father: {fileID: 7930948809067780093}
  m_RootOrder: 1
  m_LocalEulerAnglesHint: {x: -39.031944, y: 165.05927, z: 117.52035}
--- !u!1 &7930948809067940809
GameObject:
  m_ObjectHideFlags: 0
  m_CorrespondingSourceObject: {fileID: 0}
  m_PrefabInstance: {fileID: 0}
  m_PrefabAsset: {fileID: 0}
  serializedVersion: 6
  m_Component:
  - component: {fileID: 7930948809067779995}
  m_Layer: 0
  m_Name: nogaD_001_R
  m_TagString: Untagged
  m_Icon: {fileID: 0}
  m_NavMeshLayer: 0
  m_StaticEditorFlags: 0
  m_IsActive: 1
--- !u!4 &7930948809067779995
Transform:
  m_ObjectHideFlags: 0
  m_CorrespondingSourceObject: {fileID: 0}
  m_PrefabInstance: {fileID: 0}
  m_PrefabAsset: {fileID: 0}
  m_GameObject: {fileID: 7930948809067940809}
  m_LocalRotation: {x: -0.0031343407, y: -0.83410907, z: 0.113457635, w: 0.53979594}
  m_LocalPosition: {x: -0.51538575, y: -9.01402e-10, z: 0.000000029802322}
  m_LocalScale: {x: 1.0000001, y: 0.9999998, z: 1.0000001}
  m_Children: []
  m_Father: {fileID: 7930948809067779997}
  m_RootOrder: 0
  m_LocalEulerAnglesHint: {x: 10.3813715, y: -97.98678, z: 2.9841466}
--- !u!1 &7930948809067940811
GameObject:
  m_ObjectHideFlags: 0
  m_CorrespondingSourceObject: {fileID: 0}
  m_PrefabInstance: {fileID: 0}
  m_PrefabAsset: {fileID: 0}
  serializedVersion: 6
  m_Component:
  - component: {fileID: 7930948809067779997}
  m_Layer: 0
  m_Name: nogaC_001_R
  m_TagString: Untagged
  m_Icon: {fileID: 0}
  m_NavMeshLayer: 0
  m_StaticEditorFlags: 0
  m_IsActive: 1
--- !u!4 &7930948809067779997
Transform:
  m_ObjectHideFlags: 0
  m_CorrespondingSourceObject: {fileID: 0}
  m_PrefabInstance: {fileID: 0}
  m_PrefabAsset: {fileID: 0}
  m_GameObject: {fileID: 7930948809067940811}
  m_LocalRotation: {x: 0.07856694, y: 0.06866444, z: -0.055592347, w: 0.9929864}
  m_LocalPosition: {x: -0.4051793, y: 0.000000022432971, z: 0.000000074505806}
  m_LocalScale: {x: 0.9999999, y: 0.99999994, z: 0.9999997}
  m_Children:
  - {fileID: 7930948809067779995}
  m_Father: {fileID: 7930948809067779999}
  m_RootOrder: 0
  m_LocalEulerAnglesHint: {x: 9.054466, y: 1.753988, z: -1.3702745}
--- !u!1 &7930948809067940813
GameObject:
  m_ObjectHideFlags: 0
  m_CorrespondingSourceObject: {fileID: 0}
  m_PrefabInstance: {fileID: 0}
  m_PrefabAsset: {fileID: 0}
  serializedVersion: 6
  m_Component:
  - component: {fileID: 7930948809067779999}
  m_Layer: 0
  m_Name: nogaB_001_R
  m_TagString: Untagged
  m_Icon: {fileID: 0}
  m_NavMeshLayer: 0
  m_StaticEditorFlags: 0
  m_IsActive: 1
--- !u!4 &7930948809067779999
Transform:
  m_ObjectHideFlags: 0
  m_CorrespondingSourceObject: {fileID: 0}
  m_PrefabInstance: {fileID: 0}
  m_PrefabAsset: {fileID: 0}
  m_GameObject: {fileID: 7930948809067940813}
  m_LocalRotation: {x: 0.0794368, y: 0.13639218, z: -0.085578345, w: 0.9837496}
  m_LocalPosition: {x: -0.51616764, y: 0.000000031727467, z: 0.000000026077032}
  m_LocalScale: {x: 1.0000001, y: 1, z: 1.0000001}
  m_Children:
  - {fileID: 7930948809067779997}
  m_Father: {fileID: 7930948809067780071}
  m_RootOrder: 0
  m_LocalEulerAnglesHint: {x: 9.488255, y: 8.238571, z: -5.216617}
--- !u!1 &7930948809067940815
GameObject:
  m_ObjectHideFlags: 0
  m_CorrespondingSourceObject: {fileID: 0}
  m_PrefabInstance: {fileID: 0}
  m_PrefabAsset: {fileID: 0}
  serializedVersion: 6
  m_Component:
  - component: {fileID: 7930948809067780071}
  m_Layer: 0
  m_Name: nogaA_001_R
  m_TagString: Untagged
  m_Icon: {fileID: 0}
  m_NavMeshLayer: 0
  m_StaticEditorFlags: 0
  m_IsActive: 1
--- !u!4 &7930948809067780071
Transform:
  m_ObjectHideFlags: 0
  m_CorrespondingSourceObject: {fileID: 0}
  m_PrefabInstance: {fileID: 0}
  m_PrefabAsset: {fileID: 0}
  m_GameObject: {fileID: 7930948809067940815}
  m_LocalRotation: {x: 0.76645666, y: -0.56711966, z: 0.24454068, w: 0.17640668}
  m_LocalPosition: {x: -1.351493, y: 0.66855764, z: 0.44462636}
  m_LocalScale: {x: 0.99999976, y: 1, z: 1}
  m_Children:
  - {fileID: 7930948809067779999}
  m_Father: {fileID: 7930948809067780093}
  m_RootOrder: 2
  m_LocalEulerAnglesHint: {x: 39.398838, y: 164.80269, z: -116.91341}
--- !u!1 &7930948809067940817
GameObject:
  m_ObjectHideFlags: 0
  m_CorrespondingSourceObject: {fileID: 0}
  m_PrefabInstance: {fileID: 0}
  m_PrefabAsset: {fileID: 0}
  serializedVersion: 6
  m_Component:
  - component: {fileID: 7930948809067780081}
  m_Layer: 0
  m_Name: IKnoga_R
  m_TagString: Untagged
  m_Icon: {fileID: 0}
  m_NavMeshLayer: 0
  m_StaticEditorFlags: 0
  m_IsActive: 1
--- !u!4 &7930948809067780081
Transform:
  m_ObjectHideFlags: 0
  m_CorrespondingSourceObject: {fileID: 0}
  m_PrefabInstance: {fileID: 0}
  m_PrefabAsset: {fileID: 0}
  m_GameObject: {fileID: 7930948809067940817}
  m_LocalRotation: {x: 0.37958077, y: -0.22218505, z: 0.77506596, w: 0.45367944}
  m_LocalPosition: {x: 1.2139039, y: -1.5638692, z: 1.8588356}
  m_LocalScale: {x: 0.9999999, y: 0.9999999, z: 1}
  m_Children: []
  m_Father: {fileID: 7930948809067780035}
  m_RootOrder: 7
  m_LocalEulerAnglesHint: {x: 34.42002, y: 28.055307, z: 124.90183}
--- !u!1 &7930948809067940819
GameObject:
  m_ObjectHideFlags: 0
  m_CorrespondingSourceObject: {fileID: 0}
  m_PrefabInstance: {fileID: 0}
  m_PrefabAsset: {fileID: 0}
  serializedVersion: 6
  m_Component:
  - component: {fileID: 7930948809067780083}
  m_Layer: 0
  m_Name: IKnoga_L
  m_TagString: Untagged
  m_Icon: {fileID: 0}
  m_NavMeshLayer: 0
  m_StaticEditorFlags: 0
  m_IsActive: 1
--- !u!4 &7930948809067780083
Transform:
  m_ObjectHideFlags: 0
  m_CorrespondingSourceObject: {fileID: 0}
  m_PrefabInstance: {fileID: 0}
  m_PrefabAsset: {fileID: 0}
  m_GameObject: {fileID: 7930948809067940819}
  m_LocalRotation: {x: 0.22218499, y: -0.3795808, z: 0.45367956, w: 0.7750659}
  m_LocalPosition: {x: -1.2139039, y: -1.5638692, z: 1.8588356}
  m_LocalScale: {x: 0.99999976, y: 0.9999999, z: 0.99999994}
  m_Children: []
  m_Father: {fileID: 7930948809067780035}
  m_RootOrder: 6
  m_LocalEulerAnglesHint: {x: 34.409058, y: -28.040281, z: 56.054173}
--- !u!1 &7930948809067940821
GameObject:
  m_ObjectHideFlags: 0
  m_CorrespondingSourceObject: {fileID: 0}
  m_PrefabInstance: {fileID: 0}
  m_PrefabAsset: {fileID: 0}
  serializedVersion: 6
  m_Component:
  - component: {fileID: 7930948809067780085}
  m_Layer: 0
  m_Name: IKnoga_003_R
  m_TagString: Untagged
  m_Icon: {fileID: 0}
  m_NavMeshLayer: 0
  m_StaticEditorFlags: 0
  m_IsActive: 1
--- !u!4 &7930948809067780085
Transform:
  m_ObjectHideFlags: 0
  m_CorrespondingSourceObject: {fileID: 0}
  m_PrefabInstance: {fileID: 0}
  m_PrefabAsset: {fileID: 0}
  m_GameObject: {fileID: 7930948809067940821}
  m_LocalRotation: {x: 0.40677845, y: 0.1920306, z: 0.82262254, w: -0.34777537}
  m_LocalPosition: {x: 1.3740556, y: 0.95668924, z: 0.9192026}
  m_LocalScale: {x: 0.9999999, y: 0.99999994, z: 1}
  m_Children: []
  m_Father: {fileID: 7930948809067780035}
  m_RootOrder: 5
  m_LocalEulerAnglesHint: {x: -36.789207, y: 41.98206, z: -148.70885}
--- !u!1 &7930948809067940823
GameObject:
  m_ObjectHideFlags: 0
  m_CorrespondingSourceObject: {fileID: 0}
  m_PrefabInstance: {fileID: 0}
  m_PrefabAsset: {fileID: 0}
  serializedVersion: 6
  m_Component:
  - component: {fileID: 7930948809067780087}
  m_Layer: 0
  m_Name: IKnoga_003_L
  m_TagString: Untagged
  m_Icon: {fileID: 0}
  m_NavMeshLayer: 0
  m_StaticEditorFlags: 0
  m_IsActive: 1
--- !u!4 &7930948809067780087
Transform:
  m_ObjectHideFlags: 0
  m_CorrespondingSourceObject: {fileID: 0}
  m_PrefabInstance: {fileID: 0}
  m_PrefabAsset: {fileID: 0}
  m_GameObject: {fileID: 7930948809067940823}
  m_LocalRotation: {x: -0.1920307, y: -0.40677848, z: -0.34777546, w: 0.8226225}
  m_LocalPosition: {x: -1.3740556, y: 0.95668924, z: 0.9192026}
  m_LocalScale: {x: 0.99999994, y: 0.99999994, z: 1}
  m_Children: []
  m_Father: {fileID: 7930948809067780035}
  m_RootOrder: 4
  m_LocalEulerAnglesHint: {x: -36.7892, y: -41.982056, z: -31.291124}
--- !u!1 &7930948809067940825
GameObject:
  m_ObjectHideFlags: 0
  m_CorrespondingSourceObject: {fileID: 0}
  m_PrefabInstance: {fileID: 0}
  m_PrefabAsset: {fileID: 0}
  serializedVersion: 6
  m_Component:
  - component: {fileID: 7930948809067779991}
  m_Layer: 0
  m_Name: Bone_004
  m_TagString: Untagged
  m_Icon: {fileID: 0}
  m_NavMeshLayer: 0
  m_StaticEditorFlags: 0
  m_IsActive: 1
--- !u!4 &7930948809067779991
Transform:
  m_ObjectHideFlags: 0
  m_CorrespondingSourceObject: {fileID: 0}
  m_PrefabInstance: {fileID: 0}
  m_PrefabAsset: {fileID: 0}
  m_GameObject: {fileID: 7930948809067940825}
  m_LocalRotation: {x: 0.0000000018279287, y: -0.39040768, z: -0.000000045675588,
    w: 0.9206421}
  m_LocalPosition: {x: -0.34571213, y: 0.00000002613399, z: 0.00000003006431}
  m_LocalScale: {x: 1, y: 1, z: 1}
  m_Children: []
  m_Father: {fileID: 7930948809067780091}
  m_RootOrder: 0
  m_LocalEulerAnglesHint: {x: -0.13026448, y: -68.98128, z: 0.11361505}
--- !u!1 &7930948809067940827
GameObject:
  m_ObjectHideFlags: 0
  m_CorrespondingSourceObject: {fileID: 0}
  m_PrefabInstance: {fileID: 0}
  m_PrefabAsset: {fileID: 0}
  serializedVersion: 6
  m_Component:
  - component: {fileID: 7930948809067780091}
  m_Layer: 0
  m_Name: Bone_003
  m_TagString: Untagged
  m_Icon: {fileID: 0}
  m_NavMeshLayer: 0
  m_StaticEditorFlags: 0
  m_IsActive: 1
--- !u!4 &7930948809067780091
Transform:
  m_ObjectHideFlags: 0
  m_CorrespondingSourceObject: {fileID: 0}
  m_PrefabInstance: {fileID: 0}
  m_PrefabAsset: {fileID: 0}
  m_GameObject: {fileID: 7930948809067940827}
  m_LocalRotation: {x: 0.27466354, y: 0.00007283827, z: 0.9615404, w: 0.0002740212}
  m_LocalPosition: {x: 0.000000029725925, y: 0.000000018062565, z: -0.00000023105994}
  m_LocalScale: {x: 1, y: 0.99999994, z: 1}
  m_Children:
  - {fileID: 7930948809067779991}
  m_Father: {fileID: 7930948809067780093}
  m_RootOrder: 0
  m_LocalEulerAnglesHint: {x: -0.01665791, y: 31.883917, z: -179.97209}
--- !u!1 &7930948809067940829
GameObject:
  m_ObjectHideFlags: 0
  m_CorrespondingSourceObject: {fileID: 0}
  m_PrefabInstance: {fileID: 0}
  m_PrefabAsset: {fileID: 0}
  serializedVersion: 6
  m_Component:
  - component: {fileID: 7930948809067780093}
  m_Layer: 0
  m_Name: Thorso
  m_TagString: Untagged
  m_Icon: {fileID: 0}
  m_NavMeshLayer: 0
  m_StaticEditorFlags: 0
  m_IsActive: 1
--- !u!4 &7930948809067780093
Transform:
  m_ObjectHideFlags: 0
  m_CorrespondingSourceObject: {fileID: 0}
  m_PrefabInstance: {fileID: 0}
  m_PrefabAsset: {fileID: 0}
  m_GameObject: {fileID: 7930948809067940829}
  m_LocalRotation: {x: -0.0002047581, y: 0.70967245, z: -0.0001961602, w: 0.7045318}
  m_LocalPosition: {x: -1.26716, y: -0.0010155606, z: -0.81552744}
  m_LocalScale: {x: 1, y: 1.0000001, z: 1}
  m_Children:
  - {fileID: 7930948809067780091}
  - {fileID: 7930948809067780089}
  - {fileID: 7930948809067780071}
  - {fileID: 7930948809067780069}
  - {fileID: 7930948809067780067}
  - {fileID: 7930948809067780065}
  - {fileID: 7930948809067780079}
  - {fileID: 7930948809067780077}
  - {fileID: 7930948809067780075}
  - {fileID: 7930948809067780073}
  m_Father: {fileID: 7930948809067780095}
  m_RootOrder: 0
  m_LocalEulerAnglesHint: {x: 0.33793807, y: 100.28666, z: 0.29035553}
--- !u!1 &7930948809067940831
GameObject:
  m_ObjectHideFlags: 0
  m_CorrespondingSourceObject: {fileID: 0}
  m_PrefabInstance: {fileID: 0}
  m_PrefabAsset: {fileID: 0}
  serializedVersion: 6
  m_Component:
  - component: {fileID: 7930948809067780095}
  m_Layer: 0
  m_Name: Master
  m_TagString: Untagged
  m_Icon: {fileID: 0}
  m_NavMeshLayer: 0
  m_StaticEditorFlags: 0
  m_IsActive: 1
--- !u!4 &7930948809067780095
Transform:
  m_ObjectHideFlags: 0
  m_CorrespondingSourceObject: {fileID: 0}
  m_PrefabInstance: {fileID: 0}
  m_PrefabAsset: {fileID: 0}
  m_GameObject: {fileID: 7930948809067940831}
  m_LocalRotation: {x: 0.5, y: 0.5, z: -0.5, w: 0.5}
  m_LocalPosition: {x: -0, y: 0, z: -1.1409054}
  m_LocalScale: {x: 1, y: 1, z: 1}
  m_Children:
  - {fileID: 7930948809067780093}
  m_Father: {fileID: 7930948809067780035}
  m_RootOrder: 8
  m_LocalEulerAnglesHint: {x: 90, y: 89.999985, z: 0}
--- !u!1 &7930948809067940833
GameObject:
  m_ObjectHideFlags: 0
  m_CorrespondingSourceObject: {fileID: 0}
  m_PrefabInstance: {fileID: 0}
  m_PrefabAsset: {fileID: 0}
  serializedVersion: 6
  m_Component:
  - component: {fileID: 7930948809067779977}
  m_Layer: 0
  m_Name: nogaD_003_L
  m_TagString: Untagged
  m_Icon: {fileID: 0}
  m_NavMeshLayer: 0
  m_StaticEditorFlags: 0
  m_IsActive: 1
--- !u!4 &7930948809067779977
Transform:
  m_ObjectHideFlags: 0
  m_CorrespondingSourceObject: {fileID: 0}
  m_PrefabInstance: {fileID: 0}
  m_PrefabAsset: {fileID: 0}
  m_GameObject: {fileID: 7930948809067940833}
  m_LocalRotation: {x: 0.010543408, y: 0.91437906, z: -0.043030955, w: -0.40242776}
  m_LocalPosition: {x: -0.56815994, y: 0.000000005839752, z: 0.00000011920929}
  m_LocalScale: {x: 1.0000001, y: 1.0000001, z: 1.0000001}
  m_Children: []
  m_Father: {fileID: 7930948809067779979}
  m_RootOrder: 0
  m_LocalEulerAnglesHint: {x: -4.843291, y: -150.78821, z: 6.464406}
--- !u!1 &7930948809067940835
GameObject:
  m_ObjectHideFlags: 0
  m_CorrespondingSourceObject: {fileID: 0}
  m_PrefabInstance: {fileID: 0}
  m_PrefabAsset: {fileID: 0}
  serializedVersion: 6
  m_Component:
  - component: {fileID: 7930948809067779979}
  m_Layer: 0
  m_Name: nogaC_003_L
  m_TagString: Untagged
  m_Icon: {fileID: 0}
  m_NavMeshLayer: 0
  m_StaticEditorFlags: 0
  m_IsActive: 1
--- !u!4 &7930948809067779979
Transform:
  m_ObjectHideFlags: 0
  m_CorrespondingSourceObject: {fileID: 0}
  m_PrefabInstance: {fileID: 0}
  m_PrefabAsset: {fileID: 0}
  m_GameObject: {fileID: 7930948809067940835}
  m_LocalRotation: {x: 0.24690403, y: 0.1462044, z: -0.08356341, w: 0.95429546}
  m_LocalPosition: {x: -0.39915252, y: 0.00000006289998, z: 0.00000020861626}
  m_LocalScale: {x: 0.9999999, y: 0.99999994, z: 0.9999998}
  m_Children:
  - {fileID: 7930948809067779977}
  m_Father: {fileID: 7930948809067779981}
  m_RootOrder: 0
  m_LocalEulerAnglesHint: {x: 30.977932, y: 30.463167, z: -6.0875125}
--- !u!1 &7930948809067940837
GameObject:
  m_ObjectHideFlags: 0
  m_CorrespondingSourceObject: {fileID: 0}
  m_PrefabInstance: {fileID: 0}
  m_PrefabAsset: {fileID: 0}
  serializedVersion: 6
  m_Component:
  - component: {fileID: 7930948809067779981}
  m_Layer: 0
  m_Name: nogaB_003_L
  m_TagString: Untagged
  m_Icon: {fileID: 0}
  m_NavMeshLayer: 0
  m_StaticEditorFlags: 0
  m_IsActive: 1
--- !u!4 &7930948809067779981
Transform:
  m_ObjectHideFlags: 0
  m_CorrespondingSourceObject: {fileID: 0}
  m_PrefabInstance: {fileID: 0}
  m_PrefabAsset: {fileID: 0}
  m_GameObject: {fileID: 7930948809067940837}
  m_LocalRotation: {x: -0.014470638, y: 0.27936497, z: 0.013796639, w: 0.9599768}
  m_LocalPosition: {x: -0.4066278, y: 0.00000011118717, z: 0.000000048428774}
  m_LocalScale: {x: 1.0000002, y: 1, z: 1.0000002}
  m_Children:
  - {fileID: 7930948809067779979}
  m_Father: {fileID: 7930948809067780065}
  m_RootOrder: 0
  m_LocalEulerAnglesHint: {x: -1.4446687, y: 42.383015, z: 2.9760852}
--- !u!1 &7930948809067940839
GameObject:
  m_ObjectHideFlags: 0
  m_CorrespondingSourceObject: {fileID: 0}
  m_PrefabInstance: {fileID: 0}
  m_PrefabAsset: {fileID: 0}
  serializedVersion: 6
  m_Component:
  - component: {fileID: 7930948809067780065}
  m_Layer: 0
  m_Name: nogaA_003_L
  m_TagString: Untagged
  m_Icon: {fileID: 0}
  m_NavMeshLayer: 0
  m_StaticEditorFlags: 0
  m_IsActive: 1
--- !u!4 &7930948809067780065
Transform:
  m_ObjectHideFlags: 0
  m_CorrespondingSourceObject: {fileID: 0}
  m_PrefabInstance: {fileID: 0}
  m_PrefabAsset: {fileID: 0}
  m_GameObject: {fileID: 7930948809067940839}
  m_LocalRotation: {x: 0.5542293, y: 0.7910973, z: 0.15140103, w: -0.20993488}
  m_LocalPosition: {x: -0.09847504, y: -0.7778181, z: 0.3566297}
  m_LocalScale: {x: 1, y: 0.99999994, z: 0.9999999}
  m_Children:
  - {fileID: 7930948809067779981}
  m_Father: {fileID: 7930948809067780093}
  m_RootOrder: 5
  m_LocalEulerAnglesHint: {x: -12.685116, y: -173.34303, z: 71.72955}
--- !u!1 &7930948809067940841
GameObject:
  m_ObjectHideFlags: 0
  m_CorrespondingSourceObject: {fileID: 0}
  m_PrefabInstance: {fileID: 0}
  m_PrefabAsset: {fileID: 0}
  serializedVersion: 6
  m_Component:
  - component: {fileID: 7930948809067780019}
  m_Layer: 0
  m_Name: nogaD_003_R
  m_TagString: Untagged
  m_Icon: {fileID: 0}
  m_NavMeshLayer: 0
  m_StaticEditorFlags: 0
  m_IsActive: 1
--- !u!4 &7930948809067780019
Transform:
  m_ObjectHideFlags: 0
  m_CorrespondingSourceObject: {fileID: 0}
  m_PrefabInstance: {fileID: 0}
  m_PrefabAsset: {fileID: 0}
  m_GameObject: {fileID: 7930948809067940841}
  m_LocalRotation: {x: -0.010543205, y: 0.91437906, z: 0.043031003, w: -0.40242776}
  m_LocalPosition: {x: -0.56815994, y: -0.00000006958147, z: 0.000000059604645}
  m_LocalScale: {x: 1, y: 1.0000002, z: 1.0000001}
  m_Children: []
  m_Father: {fileID: 7930948809067780021}
  m_RootOrder: 0
  m_LocalEulerAnglesHint: {x: -1.596802, y: -163.3265, z: 4.8948355}
--- !u!1 &7930948809067940843
GameObject:
  m_ObjectHideFlags: 0
  m_CorrespondingSourceObject: {fileID: 0}
  m_PrefabInstance: {fileID: 0}
  m_PrefabAsset: {fileID: 0}
  serializedVersion: 6
  m_Component:
  - component: {fileID: 7930948809067780021}
  m_Layer: 0
  m_Name: nogaC_003_R
  m_TagString: Untagged
  m_Icon: {fileID: 0}
  m_NavMeshLayer: 0
  m_StaticEditorFlags: 0
  m_IsActive: 1
--- !u!4 &7930948809067780021
Transform:
  m_ObjectHideFlags: 0
  m_CorrespondingSourceObject: {fileID: 0}
  m_PrefabInstance: {fileID: 0}
  m_PrefabAsset: {fileID: 0}
  m_GameObject: {fileID: 7930948809067940843}
  m_LocalRotation: {x: -0.24690403, y: 0.14620447, z: 0.083563425, w: 0.95429546}
  m_LocalPosition: {x: -0.39915264, y: 0.000000063955795, z: -0.000000029802322}
  m_LocalScale: {x: 0.9999999, y: 0.9999999, z: 0.9999999}
  m_Children:
  - {fileID: 7930948809067780019}
  m_Father: {fileID: 7930948809067780023}
  m_RootOrder: 0
  m_LocalEulerAnglesHint: {x: -32.01481, y: 37.677887, z: 8.124102}
--- !u!1 &7930948809067940845
GameObject:
  m_ObjectHideFlags: 0
  m_CorrespondingSourceObject: {fileID: 0}
  m_PrefabInstance: {fileID: 0}
  m_PrefabAsset: {fileID: 0}
  serializedVersion: 6
  m_Component:
  - component: {fileID: 7930948809067780023}
  m_Layer: 0
  m_Name: nogaB_003_R
  m_TagString: Untagged
  m_Icon: {fileID: 0}
  m_NavMeshLayer: 0
  m_StaticEditorFlags: 0
  m_IsActive: 1
--- !u!4 &7930948809067780023
Transform:
  m_ObjectHideFlags: 0
  m_CorrespondingSourceObject: {fileID: 0}
  m_PrefabInstance: {fileID: 0}
  m_PrefabAsset: {fileID: 0}
  m_GameObject: {fileID: 7930948809067940845}
  m_LocalRotation: {x: 0.01447077, y: 0.27936503, z: -0.013796647, w: 0.9599768}
  m_LocalPosition: {x: -0.40662783, y: 0.000000002406636, z: -0.000000022351742}
  m_LocalScale: {x: 1.0000001, y: 1, z: 1.0000002}
  m_Children:
  - {fileID: 7930948809067780021}
  m_Father: {fileID: 7930948809067780079}
  m_RootOrder: 0
  m_LocalEulerAnglesHint: {x: 1.125825, y: 50.645058, z: -0.53852034}
--- !u!1 &7930948809067940847
GameObject:
  m_ObjectHideFlags: 0
  m_CorrespondingSourceObject: {fileID: 0}
  m_PrefabInstance: {fileID: 0}
  m_PrefabAsset: {fileID: 0}
  serializedVersion: 6
  m_Component:
  - component: {fileID: 7930948809067780079}
  m_Layer: 0
  m_Name: nogaA_003_R
  m_TagString: Untagged
  m_Icon: {fileID: 0}
  m_NavMeshLayer: 0
  m_StaticEditorFlags: 0
  m_IsActive: 1
--- !u!4 &7930948809067780079
Transform:
  m_ObjectHideFlags: 0
  m_CorrespondingSourceObject: {fileID: 0}
  m_PrefabInstance: {fileID: 0}
  m_PrefabAsset: {fileID: 0}
  m_GameObject: {fileID: 7930948809067940847}
  m_LocalRotation: {x: -0.55467975, y: 0.7907846, z: -0.15151201, w: -0.20984335}
  m_LocalPosition: {x: -0.09935832, y: 0.77972996, z: 0.35664558}
  m_LocalScale: {x: 1, y: 1.0000001, z: 1.0000001}
  m_Children:
  - {fileID: 7930948809067780023}
  m_Father: {fileID: 7930948809067780093}
  m_RootOrder: 6
  m_LocalEulerAnglesHint: {x: 14.831071, y: -174.37996, z: -70.65679}
--- !u!1 &7930948809067940849
GameObject:
  m_ObjectHideFlags: 0
  m_CorrespondingSourceObject: {fileID: 0}
  m_PrefabInstance: {fileID: 0}
  m_PrefabAsset: {fileID: 0}
  serializedVersion: 6
  m_Component:
  - component: {fileID: 7930948809067779973}
  m_Layer: 0
  m_Name: nogaD_002_L
  m_TagString: Untagged
  m_Icon: {fileID: 0}
  m_NavMeshLayer: 0
  m_StaticEditorFlags: 0
  m_IsActive: 1
--- !u!4 &7930948809067779973
Transform:
  m_ObjectHideFlags: 0
  m_CorrespondingSourceObject: {fileID: 0}
  m_PrefabInstance: {fileID: 0}
  m_PrefabAsset: {fileID: 0}
  m_GameObject: {fileID: 7930948809067940849}
  m_LocalRotation: {x: -0.0049853283, y: 0.9238093, z: 0.039719768, w: -0.3807544}
  m_LocalPosition: {x: -0.5128147, y: 0.000000037963417, z: -0.00000011440716}
  m_LocalScale: {x: 0.9999999, y: 1.0000001, z: 0.9999999}
  m_Children: []
  m_Father: {fileID: 7930948809067779975}
  m_RootOrder: 0
  m_LocalEulerAnglesHint: {x: -9.077031, y: -140.6578, z: 6.1457934}
--- !u!1 &7930948809067940851
GameObject:
  m_ObjectHideFlags: 0
  m_CorrespondingSourceObject: {fileID: 0}
  m_PrefabInstance: {fileID: 0}
  m_PrefabAsset: {fileID: 0}
  serializedVersion: 6
  m_Component:
  - component: {fileID: 7930948809067779975}
  m_Layer: 0
  m_Name: nogaC_002_L
  m_TagString: Untagged
  m_Icon: {fileID: 0}
  m_NavMeshLayer: 0
  m_StaticEditorFlags: 0
  m_IsActive: 1
--- !u!4 &7930948809067779975
Transform:
  m_ObjectHideFlags: 0
  m_CorrespondingSourceObject: {fileID: 0}
  m_PrefabInstance: {fileID: 0}
  m_PrefabAsset: {fileID: 0}
  m_GameObject: {fileID: 7930948809067940851}
  m_LocalRotation: {x: 0.061524298, y: 0.210812, z: -0.031952687, w: 0.9750652}
  m_LocalPosition: {x: -0.40755227, y: 0.00000005185055, z: 0.00000007831841}
  m_LocalScale: {x: 0.99999994, y: 0.99999994, z: 0.9999999}
  m_Children:
  - {fileID: 7930948809067779973}
  m_Father: {fileID: 7930948809067779993}
  m_RootOrder: 0
  m_LocalEulerAnglesHint: {x: 7.9972672, y: 32.06838, z: -2.666106}
--- !u!1 &7930948809067940853
GameObject:
  m_ObjectHideFlags: 0
  m_CorrespondingSourceObject: {fileID: 0}
  m_PrefabInstance: {fileID: 0}
  m_PrefabAsset: {fileID: 0}
  serializedVersion: 6
  m_Component:
  - component: {fileID: 7930948809067779993}
  m_Layer: 0
  m_Name: nogaB_002_L
  m_TagString: Untagged
  m_Icon: {fileID: 0}
  m_NavMeshLayer: 0
  m_StaticEditorFlags: 0
  m_IsActive: 1
--- !u!4 &7930948809067779993
Transform:
  m_ObjectHideFlags: 0
  m_CorrespondingSourceObject: {fileID: 0}
  m_PrefabInstance: {fileID: 0}
  m_PrefabAsset: {fileID: 0}
  m_GameObject: {fileID: 7930948809067940853}
  m_LocalRotation: {x: -0.013537476, y: 0.18042281, z: 0.016157337, w: 0.9833633}
  m_LocalPosition: {x: -0.40293902, y: 0.00000003010778, z: 0.000000024563633}
  m_LocalScale: {x: 1, y: 0.9999999, z: 1}
  m_Children:
  - {fileID: 7930948809067779975}
  m_Father: {fileID: 7930948809067780069}
  m_RootOrder: 0
  m_LocalEulerAnglesHint: {x: -1.8866941, y: 23.15425, z: 1.3458085}
--- !u!1 &7930948809067940855
GameObject:
  m_ObjectHideFlags: 0
  m_CorrespondingSourceObject: {fileID: 0}
  m_PrefabInstance: {fileID: 0}
  m_PrefabAsset: {fileID: 0}
  serializedVersion: 6
  m_Component:
  - component: {fileID: 7930948809067780069}
  m_Layer: 0
  m_Name: nogaA_002_L
  m_TagString: Untagged
  m_Icon: {fileID: 0}
  m_NavMeshLayer: 0
  m_StaticEditorFlags: 0
  m_IsActive: 1
--- !u!4 &7930948809067780069
Transform:
  m_ObjectHideFlags: 0
  m_CorrespondingSourceObject: {fileID: 0}
  m_PrefabInstance: {fileID: 0}
  m_PrefabAsset: {fileID: 0}
  m_GameObject: {fileID: 7930948809067940855}
  m_LocalRotation: {x: 0.704519, y: 0.6621449, z: 0.1886374, w: -0.17214298}
  m_LocalPosition: {x: -0.7616725, y: -0.8084911, z: 0.351808}
  m_LocalScale: {x: 1.0000001, y: 0.99999994, z: 0.9999998}
  m_Children:
  - {fileID: 7930948809067779993}
  m_Father: {fileID: 7930948809067780093}
  m_RootOrder: 3
  m_LocalEulerAnglesHint: {x: -17.860292, y: 178.27863, z: 93.794075}
--- !u!1 &7930948809067940857
GameObject:
  m_ObjectHideFlags: 0
  m_CorrespondingSourceObject: {fileID: 0}
  m_PrefabInstance: {fileID: 0}
  m_PrefabAsset: {fileID: 0}
  serializedVersion: 6
  m_Component:
  - component: {fileID: 7930948809067779983}
  m_Layer: 0
  m_Name: nogaD_002_R
  m_TagString: Untagged
  m_Icon: {fileID: 0}
  m_NavMeshLayer: 0
  m_StaticEditorFlags: 0
  m_IsActive: 1
--- !u!4 &7930948809067779983
Transform:
  m_ObjectHideFlags: 0
  m_CorrespondingSourceObject: {fileID: 0}
  m_PrefabInstance: {fileID: 0}
  m_PrefabAsset: {fileID: 0}
  m_GameObject: {fileID: 7930948809067940857}
  m_LocalRotation: {x: 0.004985476, y: 0.92380935, z: -0.03971982, w: -0.38075432}
  m_LocalPosition: {x: -0.5128147, y: 0.00000004310973, z: -0.000000032247044}
  m_LocalScale: {x: 0.9999999, y: 0.99999994, z: 0.99999964}
  m_Children: []
  m_Father: {fileID: 7930948809067779969}
  m_RootOrder: 0
  m_LocalEulerAnglesHint: {x: 8.657742, y: -164.02925, z: -2.8286097}
--- !u!1 &7930948809067940859
GameObject:
  m_ObjectHideFlags: 0
  m_CorrespondingSourceObject: {fileID: 0}
  m_PrefabInstance: {fileID: 0}
  m_PrefabAsset: {fileID: 0}
  serializedVersion: 6
  m_Component:
  - component: {fileID: 7930948809067779969}
  m_Layer: 0
  m_Name: nogaC_002_R
  m_TagString: Untagged
  m_Icon: {fileID: 0}
  m_NavMeshLayer: 0
  m_StaticEditorFlags: 0
  m_IsActive: 1
--- !u!4 &7930948809067779969
Transform:
  m_ObjectHideFlags: 0
  m_CorrespondingSourceObject: {fileID: 0}
  m_PrefabInstance: {fileID: 0}
  m_PrefabAsset: {fileID: 0}
  m_GameObject: {fileID: 7930948809067940859}
  m_LocalRotation: {x: -0.061524272, y: 0.21081202, z: 0.031952687, w: 0.9750652}
  m_LocalPosition: {x: -0.40755233, y: 0.000000043265878, z: -0.00000007048948}
  m_LocalScale: {x: 0.9999999, y: 0.9999999, z: 0.99999994}
  m_Children:
  - {fileID: 7930948809067779983}
  m_Father: {fileID: 7930948809067779971}
  m_RootOrder: 0
  m_LocalEulerAnglesHint: {x: -8.776483, y: 49.458122, z: 2.8134022}
--- !u!1 &7930948809067940861
GameObject:
  m_ObjectHideFlags: 0
  m_CorrespondingSourceObject: {fileID: 0}
  m_PrefabInstance: {fileID: 0}
  m_PrefabAsset: {fileID: 0}
  serializedVersion: 6
  m_Component:
  - component: {fileID: 7930948809067779971}
  m_Layer: 0
  m_Name: nogaB_002_R
  m_TagString: Untagged
  m_Icon: {fileID: 0}
  m_NavMeshLayer: 0
  m_StaticEditorFlags: 0
  m_IsActive: 1
--- !u!4 &7930948809067779971
Transform:
  m_ObjectHideFlags: 0
  m_CorrespondingSourceObject: {fileID: 0}
  m_PrefabInstance: {fileID: 0}
  m_PrefabAsset: {fileID: 0}
  m_GameObject: {fileID: 7930948809067940861}
  m_LocalRotation: {x: 0.013537447, y: 0.18042278, z: -0.01615732, w: 0.9833633}
  m_LocalPosition: {x: -0.4029392, y: 0.000000027992852, z: -0.000000046449713}
  m_LocalScale: {x: 1, y: 0.9999999, z: 1}
  m_Children:
  - {fileID: 7930948809067779969}
  m_Father: {fileID: 7930948809067780067}
  m_RootOrder: 0
  m_LocalEulerAnglesHint: {x: 1.7284055, y: 35.78359, z: -1.2842433}
--- !u!1 &7930948809067940863
GameObject:
  m_ObjectHideFlags: 0
  m_CorrespondingSourceObject: {fileID: 0}
  m_PrefabInstance: {fileID: 0}
  m_PrefabAsset: {fileID: 0}
  serializedVersion: 6
  m_Component:
  - component: {fileID: 7930948809067780067}
  m_Layer: 0
  m_Name: nogaA_002_R
  m_TagString: Untagged
  m_Icon: {fileID: 0}
  m_NavMeshLayer: 0
  m_StaticEditorFlags: 0
  m_IsActive: 1
--- !u!4 &7930948809067780067
Transform:
  m_ObjectHideFlags: 0
  m_CorrespondingSourceObject: {fileID: 0}
  m_PrefabInstance: {fileID: 0}
  m_PrefabAsset: {fileID: 0}
  m_GameObject: {fileID: 7930948809067940863}
  m_LocalRotation: {x: 0.7048963, y: -0.661747, z: 0.18872811, w: 0.17202881}
  m_LocalPosition: {x: -0.76259005, y: 0.80965096, z: 0.35182443}
  m_LocalScale: {x: 0.9999998, y: 0.99999994, z: 1}
  m_Children:
  - {fileID: 7930948809067779971}
  m_Father: {fileID: 7930948809067780093}
  m_RootOrder: 4
  m_LocalEulerAnglesHint: {x: 12.603933, y: 178.74655, z: -94.07274}
--- !u!1 &8371405146422137419
GameObject:
  m_ObjectHideFlags: 0
  m_CorrespondingSourceObject: {fileID: 0}
  m_PrefabInstance: {fileID: 0}
  m_PrefabAsset: {fileID: 0}
  serializedVersion: 6
  m_Component:
  - component: {fileID: 8371405146422137418}
  - component: {fileID: 8371405146422137417}
  - component: {fileID: 5681250923668118728}
  m_Layer: 0
  m_Name: Sword
  m_TagString: Sword
  m_Icon: {fileID: 0}
  m_NavMeshLayer: 0
  m_StaticEditorFlags: 0
  m_IsActive: 1
--- !u!4 &8371405146422137418
Transform:
  m_ObjectHideFlags: 0
  m_CorrespondingSourceObject: {fileID: 0}
  m_PrefabInstance: {fileID: 0}
  m_PrefabAsset: {fileID: 0}
  m_GameObject: {fileID: 8371405146422137419}
  m_LocalRotation: {x: 0, y: 0, z: 0, w: 1}
  m_LocalPosition: {x: 0, y: 0, z: 0}
  m_LocalScale: {x: 2, y: 1, z: 1}
  m_Children: []
  m_Father: {fileID: 7930948809067780037}
  m_RootOrder: 2
  m_LocalEulerAnglesHint: {x: 0, y: 0, z: 0}
--- !u!136 &8371405146422137417
CapsuleCollider:
  m_ObjectHideFlags: 0
  m_CorrespondingSourceObject: {fileID: 0}
  m_PrefabInstance: {fileID: 0}
  m_PrefabAsset: {fileID: 0}
  m_GameObject: {fileID: 8371405146422137419}
  m_Material: {fileID: 0}
  m_IsTrigger: 1
  m_Enabled: 0
  m_Radius: 1
  m_Height: 1
  m_Direction: 1
  m_Center: {x: 0, y: 1.5, z: 2}
--- !u!114 &5681250923668118728
MonoBehaviour:
  m_ObjectHideFlags: 0
  m_CorrespondingSourceObject: {fileID: 0}
  m_PrefabInstance: {fileID: 0}
  m_PrefabAsset: {fileID: 0}
  m_GameObject: {fileID: 8371405146422137419}
  m_Enabled: 1
  m_EditorHideFlags: 0
  m_Script: {fileID: 11500000, guid: 5513cd4ee1db5404d8d7d8e3d0241e27, type: 3}
  m_Name: 
  m_EditorClassIdentifier: 
  indicatorRect: {fileID: 0}
  indicatorImage: {fileID: 0}
--- !u!1001 &7327175674077357514
PrefabInstance:
  m_ObjectHideFlags: 0
  serializedVersion: 2
  m_Modification:
    m_TransformParent: {fileID: 7930948809067780037}
    m_Modifications:
    - target: {fileID: 5052033704755087931, guid: 3cd1306dfe571154f95ad6cdb73f4e67,
        type: 3}
      propertyPath: m_Name
      value: Hit Effect - Blood - White
      objectReference: {fileID: 0}
    - target: {fileID: 5060199245010026048, guid: 3cd1306dfe571154f95ad6cdb73f4e67,
        type: 3}
      propertyPath: m_LocalPosition.x
      value: 0
      objectReference: {fileID: 0}
    - target: {fileID: 5060199245010026048, guid: 3cd1306dfe571154f95ad6cdb73f4e67,
        type: 3}
      propertyPath: m_LocalPosition.y
      value: 0.25
      objectReference: {fileID: 0}
    - target: {fileID: 5060199245010026048, guid: 3cd1306dfe571154f95ad6cdb73f4e67,
        type: 3}
      propertyPath: m_LocalPosition.z
      value: 0
      objectReference: {fileID: 0}
    - target: {fileID: 5060199245010026048, guid: 3cd1306dfe571154f95ad6cdb73f4e67,
        type: 3}
      propertyPath: m_LocalRotation.x
      value: -0.7071068
      objectReference: {fileID: 0}
    - target: {fileID: 5060199245010026048, guid: 3cd1306dfe571154f95ad6cdb73f4e67,
        type: 3}
      propertyPath: m_LocalRotation.y
      value: 0
      objectReference: {fileID: 0}
    - target: {fileID: 5060199245010026048, guid: 3cd1306dfe571154f95ad6cdb73f4e67,
        type: 3}
      propertyPath: m_LocalRotation.z
      value: 0
      objectReference: {fileID: 0}
    - target: {fileID: 5060199245010026048, guid: 3cd1306dfe571154f95ad6cdb73f4e67,
        type: 3}
      propertyPath: m_LocalRotation.w
      value: 0.7071068
      objectReference: {fileID: 0}
    - target: {fileID: 5060199245010026048, guid: 3cd1306dfe571154f95ad6cdb73f4e67,
        type: 3}
      propertyPath: m_RootOrder
      value: 5
      objectReference: {fileID: 0}
    - target: {fileID: 5060199245010026048, guid: 3cd1306dfe571154f95ad6cdb73f4e67,
        type: 3}
      propertyPath: m_LocalEulerAnglesHint.x
      value: -90
      objectReference: {fileID: 0}
    - target: {fileID: 5060199245010026048, guid: 3cd1306dfe571154f95ad6cdb73f4e67,
        type: 3}
      propertyPath: m_LocalEulerAnglesHint.y
      value: 0
      objectReference: {fileID: 0}
    - target: {fileID: 5060199245010026048, guid: 3cd1306dfe571154f95ad6cdb73f4e67,
        type: 3}
      propertyPath: m_LocalEulerAnglesHint.z
      value: 0
      objectReference: {fileID: 0}
    m_RemovedComponents: []
  m_SourcePrefab: {fileID: 100100000, guid: 3cd1306dfe571154f95ad6cdb73f4e67, type: 3}
--- !u!4 &2564284400179485578 stripped
Transform:
  m_CorrespondingSourceObject: {fileID: 5060199245010026048, guid: 3cd1306dfe571154f95ad6cdb73f4e67,
    type: 3}
  m_PrefabInstance: {fileID: 7327175674077357514}
  m_PrefabAsset: {fileID: 0}
